solid tetraedre
    facet normal  0  0 -1
        outer loop
        vertex  0  0  0
        vertex 10  0  0
        vertex  0 10  0
        endloop
    endfacet

    facet normal -1  0  0
        outer loop
        vertex  0  0  0
        vertex  0 10  0
        vertex  0  0 10
        endloop
    endfacet

    facet normal  0 -1  0
        outer loop
        vertex  0  0  0
        vertex 10  0  0
        vertex  0  0 10
        endloop
    endfacet

    facet normal  1  1  1
        outer loop
        vertex  0 10  0
        vertex 10  0  0
        vertex  0  0 10
        endloop
    endfacet

endsolid tetraedre